%YAML 1.1
%TAG !u! tag:unity3d.com,2011:
--- !u!114 &11400000
MonoBehaviour:
  m_ObjectHideFlags: 0
  m_CorrespondingSourceObject: {fileID: 0}
  m_PrefabInstance: {fileID: 0}
  m_PrefabAsset: {fileID: 0}
  m_GameObject: {fileID: 0}
  m_Enabled: 1
  m_EditorHideFlags: 0
  m_Script: {fileID: 11500000, guid: ad6c83ac74b37b244ab26e4f8ea1b97d, type: 3}
  m_Name: _02BeiSiLieDeZhaoPian
  m_EditorClassIdentifier: 
  itemName: "\u88AB\u6495\u88C2\u7684\u7167\u7247\uFF08\u53F3\uFF09"
  itemImage: {fileID: 21300000, guid: 1fbd9482d884327419eee80bc1e4c716, type: 3}
  itemInfo: "\u88AB\u6495\u88C2\u7684\u7167\u7247\uFF0C\u4E5F\u8BB8\u5DE6\u8FB9\u7F3A\u5931\u7740\u5173\u952E\u5185\u5BB9\u2026\u2026"
  itemDetail: "\u4E00\u5F20\u88AB\u6495\u88C2\u7684\u7167\u7247\uFF0C\u7167\u7247\u4E0A\u662F\u4E00\u4E2A\u5973\u4EBA\u4E24\u53EA\u624B\u62B1\u7740\u4E00\u4E2A\u5C0F\u5B69\u5B50\uFF0C\u7167\u7247\u53F3\u4E0B\u89D2\u6709\u7740\u4E00\u884C\u5C0F\u5B57\uFF1A\u201C\u65AF\u51EF\u5C14\u987F\u201D\u3002"
  details: 0
  Gun: 0
  Fu: 0
