%YAML 1.1
%TAG !u! tag:unity3d.com,2011:
--- !u!114 &11400000
MonoBehaviour:
  m_ObjectHideFlags: 0
  m_CorrespondingSourceObject: {fileID: 0}
  m_PrefabInstance: {fileID: 0}
  m_PrefabAsset: {fileID: 0}
  m_GameObject: {fileID: 0}
  m_Enabled: 1
  m_EditorHideFlags: 0
  m_Script: {fileID: 11500000, guid: ad6c83ac74b37b244ab26e4f8ea1b97d, type: 3}
  m_Name: BeiFuShiDeBiJi
  m_EditorClassIdentifier: 
  itemName: "\u88AB\u8150\u8680\u7684\u7B14\u8BB0"
  itemImage: {fileID: 21300000, guid: 2a77918a8e84cb742b5e6f9e36d4448e, type: 3}
  itemInfo: "\u4E00\u9875\u88AB\u8150\u8680\u7684\u7B14\u8BB0\uFF0C\u6591\u9A73\u7684\u77F3\u8150\u82B1\u50CF\u662F\u5728\u8BBD\u523A\u7740\u4EC0\u4E48\u2026\u2026"
  itemDetail: "\u53EF\u6076\uFF0C\u771F\u662F\u5012\u9709\uFF01\u5C31\u662F\u56E0\u4E3A\u8FD9\u79CD\u4F4E\u8D31\u7684\u5783\u573E\uFF0C\u624D\u8BA9\u6211\u6CA1\u80FD\u53CA\u65F6\u628A\u793C\u7269\u9001\u7ED9\u73CD\u59AE\u3002\u6211\u8FFD\u6C42\u5979\u8FD9\u4E48\u4E45\uFF0C\u5C31\u88AB\u8FD9\u4E48\u6405\u548C\u4E86\uFF0C\u73CD\u59AE\u73B0\u5728\u8FD8\u5728\u751F\u6211\u7684\u6C14\uFF01\u771F\u662F\u4F4E\u8D31\u7684\u5B6C\u79CD\uFF0C\u5077\u8C01\u4E0D\u597D\uFF0C\u8FD8\u6562\u5077\u6211\u7684\u4E1C\u897F\uFF0C\u574F\u6211\u7684\u597D\u4E8B\uFF01\u6211\u4E00\u5B9A\u8981\u4ED6\u4E3A\u6B64\u4ED8\u51FA\u4EE3\u4EF7\uFF01\u4E0D\u957F\u773C\u775B\u7684\u8D31\u79CD\u4E00\u5B9A\u4E0D\u77E5\u9053\u6211\u7236\u4EB2\u662F\u8C01\u5427\uFF0C\u660E\u5929\u6211\u5C31\u8981\u4ED6\u6B7B\u5728\u6211\u9762\u524D\uFF01\r\n\r\n\u8FD9\u4E9B\u8B66\u5BDF\u600E\u4E48\u8FD9\u4E48\u65E0\u80FD\u554A\uFF0C\u8BA9\u4E00\u4E2A\u8D31\u79CD\u9003\u4E86\u4E09\u5929\uFF0C\u8FD8\u88AB\u6253\u4F24\u4E86\u597D\u51E0\u4E2A\u3002\u7B97\u4E86\uFF0C\u6211\u5C31\u4E0D\u8981\u4EB2\u773C\u770B\u4ED6\u6B7B\u4E86\uFF0C\u8BA9\u90A3\u4E9B\u8B66\u5BDF\u627E\u5230\u5C31\u76F4\u63A5\u51FB\u6BD9\u4ED6\u597D\u4E86\uFF0C\u6211\u53EA\u8981\u770B\u5230\u4ED6\u5934\u5C31\u884C\u4E86\uFF01"
  details: 0
