%YAML 1.1
%TAG !u! tag:unity3d.com,2011:
--- !u!114 &11400000
MonoBehaviour:
  m_ObjectHideFlags: 0
  m_CorrespondingSourceObject: {fileID: 0}
  m_PrefabInstance: {fileID: 0}
  m_PrefabAsset: {fileID: 0}
  m_GameObject: {fileID: 0}
  m_Enabled: 1
  m_EditorHideFlags: 0
  m_Script: {fileID: 11500000, guid: ad6c83ac74b37b244ab26e4f8ea1b97d, type: 3}
  m_Name: BuZhiShiShuiDeBiJi
  m_EditorClassIdentifier: 
  itemName: "\u4E0D\u77E5\u662F\u8C01\u7684\u7B14\u8BB0"
  itemImage: {fileID: 21300000, guid: b8a65b236b6d02142a9164a5f563483c, type: 3}
  itemInfo: "\u4E00\u53E0\u8F83\u4E3A\u6574\u9F50\u7684\u7B14\u8BB0\uFF0C\u4E0E\u4E4B\u524D\u7684\u76F8\u6BD4\u4F3C\u4E4E\u4E0D\u662F\u540C\u4E00\u4E2A\u4EBA\u6240\u5199"
  itemDetail: "\u5947\u602A\uFF0C\u6211\u8C03\u4EFB\u4E4B\u524D\u7684\u90A3\u4E2A\u76D1\u72F1\u4F3C\u4E4E\u89C1\u8FC7\u4ED6\u3002\u5728\u6211\u7684\u5370\u8C61\u4E2D\uFF0C\u4ED6\u660E\u660E\u505A\u4EC0\u4E48\u90FD\u5F88\u79EF\u6781\uFF0C\u65E0\u8BBA\u662F\u5E73\u65F6\u5E72\u6D3B\u8FD8\u662F\u53C2\u52A0\u6D3B\u52A8\u90FD\u975E\u5E38\u4E3B\u52A8\u3002\u53EA\u662F\u5E73\u65F6\u63A2\u76D1\uFF0C\u4F3C\u4E4E\u6CA1\u6709\u4EBA\u6765\u63A2\u671B\u4ED6\u3002\u4ED6\u597D\u50CF\uFF0C\u600E\u4E48\u8BF4\u5462\uFF1F\r\n\u5F88\u9002\u5E94\u76D1\u72F1\u7684\u751F\u6D3B\uFF1F\u6216\u8005\u8BF4\uFF0C\u50CF\u662F\u628A\u8FD9\u91CC\u5F53\u505A\u4E86\uFF0C\u5BB6\uFF1F\u4E3A\u4EC0\u4E48\u4F1A\u6709\u8FD9\u4E48\u5947\u602A\u7684\u611F\u89C9\uFF1F\r\n\u6211\u4E00\u5B9A\u8981\u770B\u770B\u8FD9\u662F\u600E\u4E48\u4E00\u56DE\u4E8B\u3002\r\n\u4ED6\u7684\u5C65\u5386\u663E\u793A\u4ED6\u56E0\u4E3A\u5077\u76D7\u8FDB\u5165\u76D1\u72F16\u6B21\uFF0C\u6BCF\u6B21\u8FD8\u90FD\u5728\u4E0D\u540C\u5730\u65B9\uFF0C\u800C\u4E14\u4E00\u822C\u95F4\u9694\u4E00\u4E24\u5468\u5C31\u4F1A\u88AB\u6355\u5165\u72F1\uFF0C\u4E3A\u4EC0\u4E48\u4F1A\u6709\u4E00\u4E2A\u4EBA\u559C\u6B22\u8E72\u76D1\u72F1\uFF1F"
  details: 0
