%YAML 1.1
%TAG !u! tag:unity3d.com,2011:
--- !u!114 &11400000
MonoBehaviour:
  m_ObjectHideFlags: 0
  m_CorrespondingSourceObject: {fileID: 0}
  m_PrefabInstance: {fileID: 0}
  m_PrefabAsset: {fileID: 0}
  m_GameObject: {fileID: 0}
  m_Enabled: 1
  m_EditorHideFlags: 0
  m_Script: {fileID: 11500000, guid: ad6c83ac74b37b244ab26e4f8ea1b97d, type: 3}
  m_Name: MoHuDeHua
  m_EditorClassIdentifier: 
  itemName: "\u6A21\u7CCA\u7684\u753B"
  itemImage: {fileID: 21300000, guid: f7b57e23cfb2a614fa280c013b8f4b80, type: 3}
  itemInfo: "\u4E00\u526F\u9ED1\u767D\u7684\u753B\uFF0C\u6A21\u7CCA\u4E14\u7834\u635F\uFF0C\u4F3C\u4E4E\u8BB0\u5F55\u7740\u4EC0\u4E48\u3002"
  itemDetail: "\u4E00\u5F20\u6A21\u7CCA\u7684\u753B\uFF0C\u5730\u70B9\u4F4D\u4E8E\u5C71\u95F4\u7684\u4E61\u6751\u91CC\u3002\r\n\u4ECE\u884C\u4EBA\u7684\u6253\u626E\u6765\u770B\uFF0C\r\n\u4F3C\u4E4E\u662F\u4E00\u4E9B\u4EBA\u80CC\u7740\u884C\u56CA\u8981\u79BB\u5F00\u8FD9\u91CC\u53BB\u4E3A\u751F\u6D3B\u6253\u62FC\u3002\r\n\u753B\u9762\u7684\u4E2D\u5FC3\u662F\u4E00\u4F4D\u6BCD\u4EB2\u7275\u7740\u4E00\u4F4D\u5C0F\u5B69\u3002\r\n\u753B\u7684\u80CC\u9762\u5199\u7740\u4E00\u4E9B\u65AD\u65AD\u7EED\u7EED\u3001\u6A21\u7CCA\u4E0D\u6E05\u7684\u5C0F\u5B57\uFF1A\r\n\u2026\u2026\u5988\u5988\u53EA\u80FD\u6362\u4E2A\u5730\u65B9\u53BB\u2026\u2026\r\n\u2026\u2026\u6211\u4F1A\u628A\u4F60\u9001\u5230\u2026\u2026\r\n\u2026\u2026\u4E0D\u8981\u5FD8\u4E86\u6211\u2026\u2026"
  details: 0
