%YAML 1.1
%TAG !u! tag:unity3d.com,2011:
--- !u!74 &7400000
AnimationClip:
  m_ObjectHideFlags: 0
  m_CorrespondingSourceObject: {fileID: 0}
  m_PrefabInstance: {fileID: 0}
  m_PrefabAsset: {fileID: 0}
  m_Name: exp
  serializedVersion: 7
  m_Legacy: 0
  m_Compressed: 0
  m_UseHighQualityCurve: 1
  m_RotationCurves: []
  m_CompressedRotationCurves: []
  m_EulerCurves: []
  m_PositionCurves: []
  m_ScaleCurves: []
  m_FloatCurves: []
  m_PPtrCurves:
  - curve:
    - time: 0
      value: {fileID: 7209487516264346233, guid: 9ff9d8a75d8fbb3478a280ee75eefb83, type: 3}
    - time: 0.083333336
      value: {fileID: 1427095409094852602, guid: 9ff9d8a75d8fbb3478a280ee75eefb83, type: 3}
    - time: 0.16666667
      value: {fileID: 485604594164811922, guid: 9ff9d8a75d8fbb3478a280ee75eefb83, type: 3}
    - time: 0.25
      value: {fileID: 1707489469995175924, guid: 9ff9d8a75d8fbb3478a280ee75eefb83, type: 3}
    - time: 0.33333334
      value: {fileID: -3051303331587497733, guid: 9ff9d8a75d8fbb3478a280ee75eefb83, type: 3}
    - time: 0.41666666
      value: {fileID: -1454108066095187381, guid: 9ff9d8a75d8fbb3478a280ee75eefb83, type: 3}
    - time: 0.5
      value: {fileID: 7318772869764361855, guid: 9ff9d8a75d8fbb3478a280ee75eefb83, type: 3}
    - time: 0.5833333
      value: {fileID: 1406910653187912078, guid: 9ff9d8a75d8fbb3478a280ee75eefb83, type: 3}
    - time: 0.6666667
      value: {fileID: 6117066114577179392, guid: 9ff9d8a75d8fbb3478a280ee75eefb83, type: 3}
    - time: 0.75
      value: {fileID: -7034986676310210493, guid: 9ff9d8a75d8fbb3478a280ee75eefb83, type: 3}
    - time: 0.8333333
      value: {fileID: 3327940375296090556, guid: 9ff9d8a75d8fbb3478a280ee75eefb83, type: 3}
    - time: 0.9166667
      value: {fileID: -5903446711344924552, guid: 9ff9d8a75d8fbb3478a280ee75eefb83, type: 3}
    - time: 1
      value: {fileID: -3335105481884267761, guid: 9ff9d8a75d8fbb3478a280ee75eefb83, type: 3}
    - time: 1.0833334
      value: {fileID: -8981852411310423368, guid: 9ff9d8a75d8fbb3478a280ee75eefb83, type: 3}
    - time: 1.1666666
      value: {fileID: -7782463055726480708, guid: 9ff9d8a75d8fbb3478a280ee75eefb83, type: 3}
    - time: 1.25
      value: {fileID: 5269309851884213014, guid: 9ff9d8a75d8fbb3478a280ee75eefb83, type: 3}
    attribute: m_Sprite
    path: 
    classID: 212
    script: {fileID: 0}
  m_SampleRate: 12
  m_WrapMode: 0
  m_Bounds:
    m_Center: {x: 0, y: 0, z: 0}
    m_Extent: {x: 0, y: 0, z: 0}
  m_ClipBindingConstant:
    genericBindings:
    - serializedVersion: 2
      path: 0
      attribute: 0
      script: {fileID: 0}
      typeID: 212
      customType: 23
      isPPtrCurve: 1
    pptrCurveMapping:
    - {fileID: 7209487516264346233, guid: 9ff9d8a75d8fbb3478a280ee75eefb83, type: 3}
    - {fileID: 1427095409094852602, guid: 9ff9d8a75d8fbb3478a280ee75eefb83, type: 3}
    - {fileID: 485604594164811922, guid: 9ff9d8a75d8fbb3478a280ee75eefb83, type: 3}
    - {fileID: 1707489469995175924, guid: 9ff9d8a75d8fbb3478a280ee75eefb83, type: 3}
    - {fileID: -3051303331587497733, guid: 9ff9d8a75d8fbb3478a280ee75eefb83, type: 3}
    - {fileID: -1454108066095187381, guid: 9ff9d8a75d8fbb3478a280ee75eefb83, type: 3}
    - {fileID: 7318772869764361855, guid: 9ff9d8a75d8fbb3478a280ee75eefb83, type: 3}
    - {fileID: 1406910653187912078, guid: 9ff9d8a75d8fbb3478a280ee75eefb83, type: 3}
    - {fileID: 6117066114577179392, guid: 9ff9d8a75d8fbb3478a280ee75eefb83, type: 3}
    - {fileID: -7034986676310210493, guid: 9ff9d8a75d8fbb3478a280ee75eefb83, type: 3}
    - {fileID: 3327940375296090556, guid: 9ff9d8a75d8fbb3478a280ee75eefb83, type: 3}
    - {fileID: -5903446711344924552, guid: 9ff9d8a75d8fbb3478a280ee75eefb83, type: 3}
    - {fileID: -3335105481884267761, guid: 9ff9d8a75d8fbb3478a280ee75eefb83, type: 3}
    - {fileID: -8981852411310423368, guid: 9ff9d8a75d8fbb3478a280ee75eefb83, type: 3}
    - {fileID: -7782463055726480708, guid: 9ff9d8a75d8fbb3478a280ee75eefb83, type: 3}
    - {fileID: 5269309851884213014, guid: 9ff9d8a75d8fbb3478a280ee75eefb83, type: 3}
  m_AnimationClipSettings:
    serializedVersion: 2
    m_AdditiveReferencePoseClip: {fileID: 0}
    m_AdditiveReferencePoseTime: 0
    m_StartTime: 0
    m_StopTime: 1.3333334
    m_OrientationOffsetY: 0
    m_Level: 0
    m_CycleOffset: 0
    m_HasAdditiveReferencePose: 0
    m_LoopTime: 0
    m_LoopBlend: 0
    m_LoopBlendOrientation: 0
    m_LoopBlendPositionY: 0
    m_LoopBlendPositionXZ: 0
    m_KeepOriginalOrientation: 0
    m_KeepOriginalPositionY: 1
    m_KeepOriginalPositionXZ: 0
    m_HeightFromFeet: 0
    m_Mirror: 0
  m_EditorCurves: []
  m_EulerEditorCurves: []
  m_HasGenericRootTransform: 0
  m_HasMotionFloatCurves: 0
  m_Events: []
